{
    "name": "Scripts",
    "rootNamespace": "",
    "references": [
        "GUID:0c0c8357443d62a4c9e55fe39d3a3e51",
        "GUID:8954224421322e847ba2e07024979973"
    ],
    "includePlatforms": [],
    "excludePlatforms": [],
    "allowUnsafeCode": false,
    "overrideReferences": false,
    "precompiledReferences": [],
    "autoReferenced": true,
    "defineConstraints": [],
    "versionDefines": [],
    "noEngineReferences": false
}